E:\Docs\Documents\NetBeansProjects\CursoJava8\src\main\java\com\rob\cursojava8\streams\EjemploParallel.java
E:\Docs\Documents\NetBeansProjects\CursoJava8\src\main\java\com\rob\cursojava8\behavior\ControladorEstudiante.java
E:\Docs\Documents\NetBeansProjects\CursoJava8\src\main\java\com\rob\cursojava8\behavior\EdadNombreEstudiante.java
E:\Docs\Documents\NetBeansProjects\CursoJava8\src\main\java\com\rob\cursojava8\streams\EjemploFiltro.java
E:\Docs\Documents\NetBeansProjects\CursoJava8\src\main\java\com\rob\cursojava8\streams\EjemploMapa.java
E:\Docs\Documents\NetBeansProjects\CursoJava8\src\main\java\com\rob\cursojava8\behavior\ejemplo\EjemploPredicado.java
E:\Docs\Documents\NetBeansProjects\CursoJava8\src\main\java\com\rob\cursojava8\streams\EjemploMatching.java
E:\Docs\Documents\NetBeansProjects\CursoJava8\src\main\java\com\rob\cursojava8\modelo\Estudiante.java
E:\Docs\Documents\NetBeansProjects\CursoJava8\src\main\java\com\rob\cursojava8\behavior\ejemplo\EjemploBehavior.java
E:\Docs\Documents\NetBeansProjects\CursoJava8\src\main\java\com\rob\cursojava8\streams\NombreComparator.java
E:\Docs\Documents\NetBeansProjects\CursoJava8\src\main\java\com\rob\cursojava8\streams\EjemploFlatMap.java
E:\Docs\Documents\NetBeansProjects\CursoJava8\src\main\java\com\rob\cursojava8\behavior\ejemplo\EjemploBinaryOperator.java
E:\Docs\Documents\NetBeansProjects\CursoJava8\src\main\java\com\rob\cursojava8\behavior\EdadEstudiante.java
E:\Docs\Documents\NetBeansProjects\CursoJava8\src\main\java\com\rob\cursojava8\behavior\PredicadoEstudiante.java
E:\Docs\Documents\NetBeansProjects\CursoJava8\src\main\java\com\rob\cursojava8\streams\EjemploFile.java
E:\Docs\Documents\NetBeansProjects\CursoJava8\src\main\java\com\rob\cursojava8\behavior\IOperacion.java
E:\Docs\Documents\NetBeansProjects\CursoJava8\src\main\java\com\rob\cursojava8\behavior\ejemplo\EjemploMetodoReferencia.java
